[
    {"name":"deu","full_name":"German","corpus":"BEETHOVEN_DE","use":true,"primary":false,"type":"parallel"},
    {"name":"pol","full_name":"Polish","corpus":"BEETHOVEN_PL","use":true,"primary":true,"type":"parallel"}
]
